{
  "iisSettings": {
    "windowsAuthentication": false,
    "anonymousAuthentication": true,
    "iisExpress": {
      "applicationUrl": "http://localhost:55636/",
      "sslPort": 0
    }
  },
  "profiles": {
    "IIS Express": {
      "commandName": "IISExpress",
      "launchBrowser": true,
      "launchUrl": "api/values",
      "environmentVariables": {
        "CEROUNOBANK_JWT_KEY": "qCUCkD97FMD38W8UKCqvDPc4c9eG5TDFT9ugwUtmbZxwUWpW6xb59Rbxfygh9RSb8dSuEp4M",
        "ASPNETCORE_ENVIRONMENT": "Development"
      }
    },
    "CeroUnoBank": {
      "commandName": "Project",
      "launchBrowser": true,
      "launchUrl": "api/values",
      "environmentVariables": {
        "CEROUNOBANK_JWT_KEY": "qCUCkD97FMD38W8UKCqvDPc4c9eG5TDFT9ugwUtmbZxwUWpW6xb59Rbxfygh9RSb8dSuEp4M",
        "ASPNETCORE_ENVIRONMENT": "Development"
      },
      "applicationUrl": "http://localhost:55637/"
    }
  }
}